^C:\USERS\BENJAMIN\DROPBOX\UNI STUFF\SWE20001-DEVELOPMENT PROJECT 1 TOOLS AND PRACTICES\EXTRAPROJECT\ASSEMBLYSIMULATOR\ASSEMBLYSIMULATOR\MAIN.CPP
C:\USERS\BENJAMIN\DROPBOX\UNI STUFF\SWE20001-DEVELOPMENT PROJECT 1 TOOLS AND PRACTICES\EXTRAPROJECT\ASSEMBLYSIMULATOR\ASSEMBLYSIMULATOR\DEBUG\VC140.PDB
C:\USERS\BENJAMIN\DROPBOX\UNI STUFF\SWE20001-DEVELOPMENT PROJECT 1 TOOLS AND PRACTICES\EXTRAPROJECT\ASSEMBLYSIMULATOR\ASSEMBLYSIMULATOR\DEBUG\VC140.IDB
C:\USERS\BENJAMIN\DROPBOX\UNI STUFF\SWE20001-DEVELOPMENT PROJECT 1 TOOLS AND PRACTICES\EXTRAPROJECT\ASSEMBLYSIMULATOR\ASSEMBLYSIMULATOR\DEBUG\MAIN.OBJ
^C:\USERS\BENJAMIN\DROPBOX\UNI STUFF\SWE20001-DEVELOPMENT PROJECT 1 TOOLS AND PRACTICES\EXTRAPROJECT\ASSEMBLYSIMULATOR\ASSEMBLYSIMULATOR\CPU.CPP|C:\USERS\BENJAMIN\DROPBOX\UNI STUFF\SWE20001-DEVELOPMENT PROJECT 1 TOOLS AND PRACTICES\EXTRAPROJECT\ASSEMBLYSIMULATOR\ASSEMBLYSIMULATOR\MAIN.CPP|C:\USERS\BENJAMIN\DROPBOX\UNI STUFF\SWE20001-DEVELOPMENT PROJECT 1 TOOLS AND PRACTICES\EXTRAPROJECT\ASSEMBLYSIMULATOR\ASSEMBLYSIMULATOR\PROCESSOR.CPP
C:\USERS\BENJAMIN\DROPBOX\UNI STUFF\SWE20001-DEVELOPMENT PROJECT 1 TOOLS AND PRACTICES\EXTRAPROJECT\ASSEMBLYSIMULATOR\ASSEMBLYSIMULATOR\DEBUG\VC140.PDB
C:\USERS\BENJAMIN\DROPBOX\UNI STUFF\SWE20001-DEVELOPMENT PROJECT 1 TOOLS AND PRACTICES\EXTRAPROJECT\ASSEMBLYSIMULATOR\ASSEMBLYSIMULATOR\DEBUG\VC140.IDB
C:\USERS\BENJAMIN\DROPBOX\UNI STUFF\SWE20001-DEVELOPMENT PROJECT 1 TOOLS AND PRACTICES\EXTRAPROJECT\ASSEMBLYSIMULATOR\ASSEMBLYSIMULATOR\DEBUG\CPU.OBJ
C:\USERS\BENJAMIN\DROPBOX\UNI STUFF\SWE20001-DEVELOPMENT PROJECT 1 TOOLS AND PRACTICES\EXTRAPROJECT\ASSEMBLYSIMULATOR\ASSEMBLYSIMULATOR\DEBUG\MAIN.OBJ
C:\USERS\BENJAMIN\DROPBOX\UNI STUFF\SWE20001-DEVELOPMENT PROJECT 1 TOOLS AND PRACTICES\EXTRAPROJECT\ASSEMBLYSIMULATOR\ASSEMBLYSIMULATOR\DEBUG\PROCESSOR.OBJ
^C:\USERS\BENJAMIN\DROPBOX\UNI STUFF\SWE20001-DEVELOPMENT PROJECT 1 TOOLS AND PRACTICES\EXTRAPROJECT\ASSEMBLYSIMULATOR\ASSEMBLYSIMULATOR\CPU.CPP
C:\USERS\BENJAMIN\DROPBOX\UNI STUFF\SWE20001-DEVELOPMENT PROJECT 1 TOOLS AND PRACTICES\EXTRAPROJECT\ASSEMBLYSIMULATOR\ASSEMBLYSIMULATOR\DEBUG\VC140.PDB
^C:\USERS\BENJAMIN\DROPBOX\UNI STUFF\SWE20001-DEVELOPMENT PROJECT 1 TOOLS AND PRACTICES\EXTRAPROJECT\ASSEMBLYSIMULATOR\ASSEMBLYSIMULATOR\PROCESSOR.CPP
C:\USERS\BENJAMIN\DROPBOX\UNI STUFF\SWE20001-DEVELOPMENT PROJECT 1 TOOLS AND PRACTICES\EXTRAPROJECT\ASSEMBLYSIMULATOR\ASSEMBLYSIMULATOR\DEBUG\VC140.PDB
C:\USERS\BENJAMIN\DROPBOX\UNI STUFF\SWE20001-DEVELOPMENT PROJECT 1 TOOLS AND PRACTICES\EXTRAPROJECT\ASSEMBLYSIMULATOR\ASSEMBLYSIMULATOR\DEBUG\VC140.IDB
^C:\USERS\BENJAMIN\DROPBOX\UNI STUFF\SWE20001-DEVELOPMENT PROJECT 1 TOOLS AND PRACTICES\EXTRAPROJECT\ASSEMBLYSIMULATOR\ASSEMBLYSIMULATOR\MAIN.CPP|C:\USERS\BENJAMIN\DROPBOX\UNI STUFF\SWE20001-DEVELOPMENT PROJECT 1 TOOLS AND PRACTICES\EXTRAPROJECT\ASSEMBLYSIMULATOR\ASSEMBLYSIMULATOR\PROCESSOR.CPP
C:\USERS\BENJAMIN\DROPBOX\UNI STUFF\SWE20001-DEVELOPMENT PROJECT 1 TOOLS AND PRACTICES\EXTRAPROJECT\ASSEMBLYSIMULATOR\ASSEMBLYSIMULATOR\DEBUG\VC140.PDB
C:\USERS\BENJAMIN\DROPBOX\UNI STUFF\SWE20001-DEVELOPMENT PROJECT 1 TOOLS AND PRACTICES\EXTRAPROJECT\ASSEMBLYSIMULATOR\ASSEMBLYSIMULATOR\DEBUG\VC140.IDB
C:\USERS\BENJAMIN\DROPBOX\UNI STUFF\SWE20001-DEVELOPMENT PROJECT 1 TOOLS AND PRACTICES\EXTRAPROJECT\ASSEMBLYSIMULATOR\ASSEMBLYSIMULATOR\DEBUG\MAIN.OBJ
^C:\USERS\BENJAMIN\DROPBOX\UNI STUFF\SWE20001-DEVELOPMENT PROJECT 1 TOOLS AND PRACTICES\EXTRAPROJECT\ASSEMBLYSIMULATOR\ASSEMBLYSIMULATOR\CPU.CPP|C:\USERS\BENJAMIN\DROPBOX\UNI STUFF\SWE20001-DEVELOPMENT PROJECT 1 TOOLS AND PRACTICES\EXTRAPROJECT\ASSEMBLYSIMULATOR\ASSEMBLYSIMULATOR\MAIN.CPP|C:\USERS\BENJAMIN\DROPBOX\UNI STUFF\SWE20001-DEVELOPMENT PROJECT 1 TOOLS AND PRACTICES\EXTRAPROJECT\ASSEMBLYSIMULATOR\ASSEMBLYSIMULATOR\PROCESSOR.CPP|C:\USERS\BENJAMIN\DROPBOX\UNI STUFF\SWE20001-DEVELOPMENT PROJECT 1 TOOLS AND PRACTICES\EXTRAPROJECT\ASSEMBLYSIMULATOR\ASSEMBLYSIMULATOR\SAVELOAD.CPP
C:\USERS\BENJAMIN\DROPBOX\UNI STUFF\SWE20001-DEVELOPMENT PROJECT 1 TOOLS AND PRACTICES\EXTRAPROJECT\ASSEMBLYSIMULATOR\ASSEMBLYSIMULATOR\DEBUG\VC140.PDB
C:\USERS\BENJAMIN\DROPBOX\UNI STUFF\SWE20001-DEVELOPMENT PROJECT 1 TOOLS AND PRACTICES\EXTRAPROJECT\ASSEMBLYSIMULATOR\ASSEMBLYSIMULATOR\DEBUG\VC140.IDB
C:\USERS\BENJAMIN\DROPBOX\UNI STUFF\SWE20001-DEVELOPMENT PROJECT 1 TOOLS AND PRACTICES\EXTRAPROJECT\ASSEMBLYSIMULATOR\ASSEMBLYSIMULATOR\DEBUG\CPU.OBJ
C:\USERS\BENJAMIN\DROPBOX\UNI STUFF\SWE20001-DEVELOPMENT PROJECT 1 TOOLS AND PRACTICES\EXTRAPROJECT\ASSEMBLYSIMULATOR\ASSEMBLYSIMULATOR\DEBUG\PROCESSOR.OBJ
C:\USERS\BENJAMIN\DROPBOX\UNI STUFF\SWE20001-DEVELOPMENT PROJECT 1 TOOLS AND PRACTICES\EXTRAPROJECT\ASSEMBLYSIMULATOR\ASSEMBLYSIMULATOR\DEBUG\SAVELOAD.OBJ
C:\USERS\BENJAMIN\DROPBOX\UNI STUFF\SWE20001-DEVELOPMENT PROJECT 1 TOOLS AND PRACTICES\EXTRAPROJECT\ASSEMBLYSIMULATOR\ASSEMBLYSIMULATOR\DEBUG\MAIN.OBJ
^C:\USERS\BENJAMIN\DROPBOX\UNI STUFF\SWE20001-DEVELOPMENT PROJECT 1 TOOLS AND PRACTICES\EXTRAPROJECT\ASSEMBLYSIMULATOR\ASSEMBLYSIMULATOR\SAVELOAD.CPP
C:\USERS\BENJAMIN\DROPBOX\UNI STUFF\SWE20001-DEVELOPMENT PROJECT 1 TOOLS AND PRACTICES\EXTRAPROJECT\ASSEMBLYSIMULATOR\ASSEMBLYSIMULATOR\DEBUG\VC140.PDB
C:\USERS\BENJAMIN\DROPBOX\UNI STUFF\SWE20001-DEVELOPMENT PROJECT 1 TOOLS AND PRACTICES\EXTRAPROJECT\ASSEMBLYSIMULATOR\ASSEMBLYSIMULATOR\DEBUG\VC140.IDB
C:\USERS\BENJAMIN\DROPBOX\UNI STUFF\SWE20001-DEVELOPMENT PROJECT 1 TOOLS AND PRACTICES\EXTRAPROJECT\ASSEMBLYSIMULATOR\ASSEMBLYSIMULATOR\DEBUG\SAVELOAD.OBJ
^C:\USERS\BENJAMIN\DROPBOX\UNI STUFF\SWE20001-DEVELOPMENT PROJECT 1 TOOLS AND PRACTICES\EXTRAPROJECT\ASSEMBLYSIMULATOR\ASSEMBLYSIMULATOR\MAIN.CPP|C:\USERS\BENJAMIN\DROPBOX\UNI STUFF\SWE20001-DEVELOPMENT PROJECT 1 TOOLS AND PRACTICES\EXTRAPROJECT\ASSEMBLYSIMULATOR\ASSEMBLYSIMULATOR\PROCESSOR.CPP|C:\USERS\BENJAMIN\DROPBOX\UNI STUFF\SWE20001-DEVELOPMENT PROJECT 1 TOOLS AND PRACTICES\EXTRAPROJECT\ASSEMBLYSIMULATOR\ASSEMBLYSIMULATOR\SAVELOAD.CPP
C:\USERS\BENJAMIN\DROPBOX\UNI STUFF\SWE20001-DEVELOPMENT PROJECT 1 TOOLS AND PRACTICES\EXTRAPROJECT\ASSEMBLYSIMULATOR\ASSEMBLYSIMULATOR\DEBUG\VC140.PDB
C:\USERS\BENJAMIN\DROPBOX\UNI STUFF\SWE20001-DEVELOPMENT PROJECT 1 TOOLS AND PRACTICES\EXTRAPROJECT\ASSEMBLYSIMULATOR\ASSEMBLYSIMULATOR\DEBUG\VC140.IDB
C:\USERS\BENJAMIN\DROPBOX\UNI STUFF\SWE20001-DEVELOPMENT PROJECT 1 TOOLS AND PRACTICES\EXTRAPROJECT\ASSEMBLYSIMULATOR\ASSEMBLYSIMULATOR\DEBUG\PROCESSOR.OBJ
C:\USERS\BENJAMIN\DROPBOX\UNI STUFF\SWE20001-DEVELOPMENT PROJECT 1 TOOLS AND PRACTICES\EXTRAPROJECT\ASSEMBLYSIMULATOR\ASSEMBLYSIMULATOR\DEBUG\SAVELOAD.OBJ
C:\USERS\BENJAMIN\DROPBOX\UNI STUFF\SWE20001-DEVELOPMENT PROJECT 1 TOOLS AND PRACTICES\EXTRAPROJECT\ASSEMBLYSIMULATOR\ASSEMBLYSIMULATOR\DEBUG\MAIN.OBJ
^C:\USERS\BENJAMIN\DROPBOX\UNI STUFF\SWE20001-DEVELOPMENT PROJECT 1 TOOLS AND PRACTICES\EXTRAPROJECT\ASSEMBLYSIMULATOR\ASSEMBLYSIMULATOR\MAIN.CPP|C:\USERS\BENJAMIN\DROPBOX\UNI STUFF\SWE20001-DEVELOPMENT PROJECT 1 TOOLS AND PRACTICES\EXTRAPROJECT\ASSEMBLYSIMULATOR\ASSEMBLYSIMULATOR\SAVELOAD.CPP
C:\USERS\BENJAMIN\DROPBOX\UNI STUFF\SWE20001-DEVELOPMENT PROJECT 1 TOOLS AND PRACTICES\EXTRAPROJECT\ASSEMBLYSIMULATOR\ASSEMBLYSIMULATOR\DEBUG\VC140.PDB
C:\USERS\BENJAMIN\DROPBOX\UNI STUFF\SWE20001-DEVELOPMENT PROJECT 1 TOOLS AND PRACTICES\EXTRAPROJECT\ASSEMBLYSIMULATOR\ASSEMBLYSIMULATOR\DEBUG\VC140.IDB
C:\USERS\BENJAMIN\DROPBOX\UNI STUFF\SWE20001-DEVELOPMENT PROJECT 1 TOOLS AND PRACTICES\EXTRAPROJECT\ASSEMBLYSIMULATOR\ASSEMBLYSIMULATOR\DEBUG\MAIN.OBJ
C:\USERS\BENJAMIN\DROPBOX\UNI STUFF\SWE20001-DEVELOPMENT PROJECT 1 TOOLS AND PRACTICES\EXTRAPROJECT\ASSEMBLYSIMULATOR\ASSEMBLYSIMULATOR\DEBUG\SAVELOAD.OBJ
