^C:\USERS\BENJAMIN\DROPBOX\UNI STUFF\SWE20001-DEVELOPMENT PROJECT 1 TOOLS AND PRACTICES\EXTRAPROJECT\ASSEMBLYSIMULATOR\ASSEMBLYSIMULATOR\DEBUG\CPU.OBJ|C:\USERS\BENJAMIN\DROPBOX\UNI STUFF\SWE20001-DEVELOPMENT PROJECT 1 TOOLS AND PRACTICES\EXTRAPROJECT\ASSEMBLYSIMULATOR\ASSEMBLYSIMULATOR\DEBUG\MAIN.OBJ|C:\USERS\BENJAMIN\DROPBOX\UNI STUFF\SWE20001-DEVELOPMENT PROJECT 1 TOOLS AND PRACTICES\EXTRAPROJECT\ASSEMBLYSIMULATOR\ASSEMBLYSIMULATOR\DEBUG\PROCESSOR.OBJ|C:\USERS\BENJAMIN\DROPBOX\UNI STUFF\SWE20001-DEVELOPMENT PROJECT 1 TOOLS AND PRACTICES\EXTRAPROJECT\ASSEMBLYSIMULATOR\ASSEMBLYSIMULATOR\DEBUG\SAVELOAD.OBJ
C:\USERS\BENJAMIN\DROPBOX\UNI STUFF\SWE20001-DEVELOPMENT PROJECT 1 TOOLS AND PRACTICES\EXTRAPROJECT\ASSEMBLYSIMULATOR\DEBUG\ASSEMBLYSIMULATOR.ILK
C:\USERS\BENJAMIN\DROPBOX\UNI STUFF\SWE20001-DEVELOPMENT PROJECT 1 TOOLS AND PRACTICES\EXTRAPROJECT\ASSEMBLYSIMULATOR\DEBUG\ASSEMBLYSIMULATOR.EXE
C:\USERS\BENJAMIN\DROPBOX\UNI STUFF\SWE20001-DEVELOPMENT PROJECT 1 TOOLS AND PRACTICES\EXTRAPROJECT\ASSEMBLYSIMULATOR\DEBUG\ASSEMBLYSIMULATOR.PDB
